Data Analytics Project - NFL Data
…
Rows: 50147 Columns: 10
── Column specification ────────────────────────────────────────────────────────
Delimiter: ","
chr (2): game_id, posteam
dbl (8): play_id, drive, week, qtr, down, half_seconds_remaining, pass, wp

ℹ Use `spec()` to retrieve the full column specification for this data.
ℹ Specify the column types or set `show_col_types = FALSE` to quiet this message.

Q2a <- NFL2022_stuffs %>%
  filter(!is.na(posteam))
print(Q2a)

# A tibble: 46,427 × 10
   play_id game_id  drive  week posteam   qtr  down half_seconds_remaining  pass
     <dbl> <chr>    <dbl> <dbl> <chr>   <dbl> <dbl>                  <dbl> <dbl>
 1      43 2022_01…     1     1 NYJ         1    NA                   1800     0
 2      68 2022_01…     1     1 NYJ         1     1                   1796     0
 3      89 2022_01…     1     1 NYJ         1     1                   1769     1
 4     115 2022_01…     1     1 NYJ         1     2                   1765     0
 5     136 2022_01…     1     1 NYJ         1     3                   1741     1
 6     172 2022_01…     1     1 NYJ         1     4                   1733     0
 7     202 2022_01…     2     1 BAL         1     1                   1722     1
 8     230 2022_01…     2     1 BAL         1     2                   1701     1
 9     254 2022_01…     2     1 BAL         1     3                   1661     0
10     275 2022_01…     2     1 BAL         1     1                   1621     0
# ℹ 46,417 more rows
# ℹ 1 more variable: wp <dbl>

Q2b.

Summarize the mean value of pass for each posteam when all the following conditions hold: -wp is greater than 20% and less than 75%; -down is less than or equal to 2; and -half_seconds_remaining is greater than 120.

Q2b <- NFL2022_stuffs %>%
  filter(wp > 0.20 & wp < 0.75, down <= 2, half_seconds_remaining > 120) %>%
  group_by(posteam) %>%
  summarise(mean_pass = mean(pass, na.rm = TRUE))
print(Q2b)

# A tibble: 32 × 2
   posteam mean_pass
   <chr>       <dbl>
 1 ARI         0.553
 2 ATL         0.4  
 3 BAL         0.520
 4 BUF         0.604
 5 CAR         0.458
 6 CHI         0.420
 7 CIN         0.657
 8 CLE         0.491
 9 DAL         0.474
10 DEN         0.493
# ℹ 22 more rows
…
selected_passers <- c("J.Allen", "P.Mahomes")
filtered_data <- NFL2022_stuffs_EPA %>%
  filter(passer %in% selected_passers)

difference_data <- filtered_data %>%
  group_by(week, passer) %>%
  summarise(mean_epa = mean(epa), .groups = "drop") %>%
  spread(passer, mean_epa) %>%
  mutate(difference = J.Allen - P.Mahomes) %>%
  select(week, difference)

print(difference_data)

# A tibble: 22 × 2
    week difference
   <dbl>      <dbl>
 1     1    -0.169 
 2     2     0.339 
 3     3    -0.0763
 4     4    -0.0803
 5     5     0.325 
 6     6     0.173 
 7     7    NA     
 8     8    NA     
 9     9    -0.304 
10    10    -0.429 
# ℹ 12 more rows
…
